{
  "project_info": {
    "project_number": "94898065311",
    "firebase_url": "https://ncrbarcodereader.firebaseio.com",
    "project_id": "ncrbarcodereader",
    "storage_bucket": "ncrbarcodereader.appspot.com"
  },
  "client": [
    {
      "client_info": {
        "mobilesdk_app_id": "1:94898065311:android:814a2c73744ddfcf",
        "android_client_info": {
          "package_name": "com.example.ncrbarcodereader"
        }
      },
      "oauth_client": [
        {
          "client_id": "94898065311-8mcnqdm2rdkpefu6hsngnee07oohu9aj.apps.googleusercontent.com",
          "client_type": 1,
          "android_info": {
            "package_name": "com.example.ncrbarcodereader",
            "certificate_hash": "77af7f3e1003abeba5b7dc86376eea6957432adc"
          }
        },
        {
          "client_id": "94898065311-jl7k1diaol4gcobhub517dq2hd9g6sok.apps.googleusercontent.com",
          "client_type": 3
        }
      ],
      "api_key": [
        {
          "current_key": "AIzaSyCoroS7UZXsQaBvlFhI_UFcdaGeM96G0y8"
        }
      ],
      "services": {
        "appinvite_service": {
          "other_platform_oauth_client": [
            {
              "client_id": "94898065311-jl7k1diaol4gcobhub517dq2hd9g6sok.apps.googleusercontent.com",
              "client_type": 3
            }
          ]
        }
      }
    }
  ],
  "configuration_version": "1"
}